^G:\CROSSPLATFORMSERIALISATION\BULID\GAME\CLIENT.DIR\DEBUG\CLIENT.OBJ
G:\CROSSPLATFORMSERIALISATION\BULID\BIN\DEBUG\CLIENT.ILK
G:\CROSSPLATFORMSERIALISATION\BULID\BIN\DEBUG\CLIENT.EXE
G:\CROSSPLATFORMSERIALISATION\BULID\BIN\DEBUG\CLIENT.PDB
