^G:\CROSSPLATFORMSERIALISATION\BULID\GOOGLETEST-DOWNLOAD\CMAKEFILES\19D14B306B5039D37F44DDA14D8A3D44\GOOGLETEST-MKDIR.RULE
^G:\CROSSPLATFORMSERIALISATION\BULID\GOOGLETEST-DOWNLOAD\CMAKEFILES\19D14B306B5039D37F44DDA14D8A3D44\GOOGLETEST-DOWNLOAD.RULE
G:\CROSSPLATFORMSERIALISATION\BULID\GOOGLETEST-DOWNLOAD\GOOGLETEST-PREFIX\SRC\GOOGLETEST-STAMP\GOOGLETEST-GITINFO.TXT
G:\CROSSPLATFORMSERIALISATION\BULID\GOOGLETEST-DOWNLOAD\GOOGLETEST-PREFIX\SRC\GOOGLETEST-STAMP\DEBUG\GOOGLETEST-MKDIR
^G:\CROSSPLATFORMSERIALISATION\BULID\GOOGLETEST-DOWNLOAD\CMAKEFILES\19D14B306B5039D37F44DDA14D8A3D44\GOOGLETEST-PATCH.RULE
G:\CROSSPLATFORMSERIALISATION\BULID\GOOGLETEST-DOWNLOAD\GOOGLETEST-PREFIX\SRC\GOOGLETEST-STAMP\DEBUG\GOOGLETEST-DOWNLOAD
^G:\CROSSPLATFORMSERIALISATION\BULID\GOOGLETEST-DOWNLOAD\CMAKEFILES\19D14B306B5039D37F44DDA14D8A3D44\GOOGLETEST-CONFIGURE.RULE
G:\CROSSPLATFORMSERIALISATION\BULID\GOOGLETEST-DOWNLOAD\GOOGLETEST-PREFIX\TMP\GOOGLETEST-CFGCMD.TXT
G:\CROSSPLATFORMSERIALISATION\BULID\GOOGLETEST-DOWNLOAD\GOOGLETEST-PREFIX\SRC\GOOGLETEST-STAMP\DEBUG\GOOGLETEST-PATCH
^G:\CROSSPLATFORMSERIALISATION\BULID\GOOGLETEST-DOWNLOAD\CMAKEFILES\19D14B306B5039D37F44DDA14D8A3D44\GOOGLETEST-BUILD.RULE
G:\CROSSPLATFORMSERIALISATION\BULID\GOOGLETEST-DOWNLOAD\GOOGLETEST-PREFIX\SRC\GOOGLETEST-STAMP\DEBUG\GOOGLETEST-CONFIGURE
^G:\CROSSPLATFORMSERIALISATION\BULID\GOOGLETEST-DOWNLOAD\CMAKEFILES\19D14B306B5039D37F44DDA14D8A3D44\GOOGLETEST-INSTALL.RULE
G:\CROSSPLATFORMSERIALISATION\BULID\GOOGLETEST-DOWNLOAD\GOOGLETEST-PREFIX\SRC\GOOGLETEST-STAMP\DEBUG\GOOGLETEST-BUILD
^G:\CROSSPLATFORMSERIALISATION\BULID\GOOGLETEST-DOWNLOAD\CMAKEFILES\19D14B306B5039D37F44DDA14D8A3D44\GOOGLETEST-TEST.RULE
G:\CROSSPLATFORMSERIALISATION\BULID\GOOGLETEST-DOWNLOAD\GOOGLETEST-PREFIX\SRC\GOOGLETEST-STAMP\DEBUG\GOOGLETEST-INSTALL
^G:\CROSSPLATFORMSERIALISATION\BULID\GOOGLETEST-DOWNLOAD\CMAKEFILES\13EF10D014DB2A7DE054B7BB4DA4A6D5\GOOGLETEST-COMPLETE.RULE
G:\CROSSPLATFORMSERIALISATION\BULID\GOOGLETEST-DOWNLOAD\GOOGLETEST-PREFIX\SRC\GOOGLETEST-STAMP\DEBUG\GOOGLETEST-INSTALL
G:\CROSSPLATFORMSERIALISATION\BULID\GOOGLETEST-DOWNLOAD\GOOGLETEST-PREFIX\SRC\GOOGLETEST-STAMP\DEBUG\GOOGLETEST-MKDIR
G:\CROSSPLATFORMSERIALISATION\BULID\GOOGLETEST-DOWNLOAD\GOOGLETEST-PREFIX\SRC\GOOGLETEST-STAMP\DEBUG\GOOGLETEST-DOWNLOAD
G:\CROSSPLATFORMSERIALISATION\BULID\GOOGLETEST-DOWNLOAD\GOOGLETEST-PREFIX\SRC\GOOGLETEST-STAMP\DEBUG\GOOGLETEST-PATCH
G:\CROSSPLATFORMSERIALISATION\BULID\GOOGLETEST-DOWNLOAD\GOOGLETEST-PREFIX\SRC\GOOGLETEST-STAMP\DEBUG\GOOGLETEST-CONFIGURE
G:\CROSSPLATFORMSERIALISATION\BULID\GOOGLETEST-DOWNLOAD\GOOGLETEST-PREFIX\SRC\GOOGLETEST-STAMP\DEBUG\GOOGLETEST-BUILD
G:\CROSSPLATFORMSERIALISATION\BULID\GOOGLETEST-DOWNLOAD\GOOGLETEST-PREFIX\SRC\GOOGLETEST-STAMP\DEBUG\GOOGLETEST-TEST
^G:\CROSSPLATFORMSERIALISATION\BULID\GOOGLETEST-DOWNLOAD\CMAKELISTS.TXT
C:\PROGRAM FILES\CMAKE\SHARE\CMAKE-3.16\MODULES\CMAKEDETERMINESYSTEM.CMAKE
C:\PROGRAM FILES\CMAKE\SHARE\CMAKE-3.16\MODULES\CMAKEGENERICSYSTEM.CMAKE
C:\PROGRAM FILES\CMAKE\SHARE\CMAKE-3.16\MODULES\CMAKEINITIALIZECONFIGS.CMAKE
C:\PROGRAM FILES\CMAKE\SHARE\CMAKE-3.16\MODULES\CMAKESYSTEM.CMAKE.IN
C:\PROGRAM FILES\CMAKE\SHARE\CMAKE-3.16\MODULES\CMAKESYSTEMSPECIFICINFORMATION.CMAKE
C:\PROGRAM FILES\CMAKE\SHARE\CMAKE-3.16\MODULES\CMAKESYSTEMSPECIFICINITIALIZE.CMAKE
C:\PROGRAM FILES\CMAKE\SHARE\CMAKE-3.16\MODULES\EXTERNALPROJECT.CMAKE
C:\PROGRAM FILES\CMAKE\SHARE\CMAKE-3.16\MODULES\FINDGIT.CMAKE
C:\PROGRAM FILES\CMAKE\SHARE\CMAKE-3.16\MODULES\FINDPACKAGEHANDLESTANDARDARGS.CMAKE
C:\PROGRAM FILES\CMAKE\SHARE\CMAKE-3.16\MODULES\FINDPACKAGEMESSAGE.CMAKE
C:\PROGRAM FILES\CMAKE\SHARE\CMAKE-3.16\MODULES\PLATFORM\WINDOWS.CMAKE
C:\PROGRAM FILES\CMAKE\SHARE\CMAKE-3.16\MODULES\PLATFORM\WINDOWSPATHS.CMAKE
C:\PROGRAM FILES\CMAKE\SHARE\CMAKE-3.16\MODULES\REPOSITORYINFO.TXT.IN
G:\CROSSPLATFORMSERIALISATION\BULID\GOOGLETEST-DOWNLOAD\CMAKEFILES\3.16.0-RC3\CMAKESYSTEM.CMAKE
G:\CROSSPLATFORMSERIALISATION\BULID\GOOGLETEST-DOWNLOAD\GOOGLETEST-PREFIX\TMP\GOOGLETEST-CFGCMD.TXT.IN
^G:\CROSSPLATFORMSERIALISATION\BULID\GOOGLETEST-DOWNLOAD\CMAKEFILES\19D14B306B5039D37F44DDA14D8A3D44\GOOGLETEST-UPDATE.RULE
G:\CROSSPLATFORMSERIALISATION\BULID\GOOGLETEST-DOWNLOAD\GOOGLETEST-PREFIX\SRC\GOOGLETEST-STAMP\DEBUG\GOOGLETEST-DOWNLOAD
^G:\CROSSPLATFORMSERIALISATION\BULID\GOOGLETEST-DOWNLOAD\CMAKEFILES\176504262164AE8C966939F4E14F629F\GOOGLETEST.RULE
G:\CROSSPLATFORMSERIALISATION\BULID\GOOGLETEST-DOWNLOAD\CMAKEFILES\DEBUG\GOOGLETEST-COMPLETE
