^G:\CROSSPLATFORMSERIALISATION\BULID\GOOGLETEST-SRC\GOOGLETEST\SRC\GTEST_MAIN.CC
G:\CROSSPLATFORMSERIALISATION\BULID\BIN\DEBUG\GTEST_MAIND.PDB
G:\CROSSPLATFORMSERIALISATION\BULID\GOOGLETEST-BUILD\GOOGLETEST\GTEST_MAIN.DIR\DEBUG\GTEST_MAIN.OBJ
