^G:\CROSSPLATFORMSERIALISATION\BULID\GOOGLETEST-SRC\GOOGLETEST\CMAKELISTS.TXT
C:\PROGRAM FILES\CMAKE\SHARE\CMAKE-3.16\MODULES\BASICCONFIGVERSION-ANYNEWERVERSION.CMAKE.IN
C:\PROGRAM FILES\CMAKE\SHARE\CMAKE-3.16\MODULES\CMAKEPACKAGECONFIGHELPERS.CMAKE
C:\PROGRAM FILES\CMAKE\SHARE\CMAKE-3.16\MODULES\CHECKCSOURCECOMPILES.CMAKE
C:\PROGRAM FILES\CMAKE\SHARE\CMAKE-3.16\MODULES\CHECKINCLUDEFILE.CMAKE
C:\PROGRAM FILES\CMAKE\SHARE\CMAKE-3.16\MODULES\CHECKLIBRARYEXISTS.CMAKE
C:\PROGRAM FILES\CMAKE\SHARE\CMAKE-3.16\MODULES\FINDPACKAGEHANDLESTANDARDARGS.CMAKE
C:\PROGRAM FILES\CMAKE\SHARE\CMAKE-3.16\MODULES\FINDPACKAGEMESSAGE.CMAKE
C:\PROGRAM FILES\CMAKE\SHARE\CMAKE-3.16\MODULES\FINDPYTHONINTERP.CMAKE
C:\PROGRAM FILES\CMAKE\SHARE\CMAKE-3.16\MODULES\FINDTHREADS.CMAKE
C:\PROGRAM FILES\CMAKE\SHARE\CMAKE-3.16\MODULES\WRITEBASICCONFIGVERSIONFILE.CMAKE
G:\CROSSPLATFORMSERIALISATION\BULID\GOOGLETEST-SRC\GOOGLETEST\CMAKE\CONFIG.CMAKE.IN
G:\CROSSPLATFORMSERIALISATION\BULID\GOOGLETEST-SRC\GOOGLETEST\CMAKE\GTEST.PC.IN
G:\CROSSPLATFORMSERIALISATION\BULID\GOOGLETEST-SRC\GOOGLETEST\CMAKE\GTEST_MAIN.PC.IN
G:\CROSSPLATFORMSERIALISATION\BULID\GOOGLETEST-SRC\GOOGLETEST\CMAKE\INTERNAL_UTILS.CMAKE
