^G:\CROSSPLATFORMSERIALISATION\BULID\GOOGLETEST-BUILD\GOOGLETEST\GTEST_MAIN.DIR\DEBUG\GTEST_MAIN.OBJ
G:\CROSSPLATFORMSERIALISATION\BULID\GOOGLETEST-BUILD\GOOGLETEST\GTEST_MAIN.DIR\DEBUG\GTEST_MAIN.OBJ
C:\WINDOWS\SYSTEM32\TZRES.DLL
